581401701249BWZBTZGG
581401701249BWZBTZAG
581401701249BWZBTZBG
581401701249BWZBTZCG
548011015378GYGLBAEJ
581401701249BWZBTZKG
9269261954GAFZXGEHDN
78474486801VXCKJQMAE
1136017017013AETTZEB
2161636145HLXQLMQGAX
7845235657MIZJUQNLTK
11491163013YMIOGTNSB
82129101378RBZTEUOFQ
01959456371LZCAZHYEZ